Evaluating Public Policy
…
`\begin{align}
  \hat{\mathrm{turnout}} &= a + d_{\mathit{year}} + d_{\mathit{states}} + b\left(\mathrm{ID.Law}\right)
\end{align}`

--

.left-code[

```r
turnout_data
```

```
## # A tibble: 1,000 x 4
##     year state       turnout strict_id
##    <dbl> <chr>         <dbl>     <dbl>
##  1  1980 Alabama        49.2         0
##  2  1980 Alaska         58.7         0
##  3  1980 Arizona        46.2         0
##  4  1980 Arkansas       52           0
##  5  1980 California     55           0
##  6  1980 Colorado       57.2         0
##  7  1980 Connecticut    63.9         0
##  8  1980 Delaware       56           0
##  9  1980 Florida        52           0
## 10  1980 Georgia        42.1         0
## # … with 990 more rows
```
…
