Averages, Expectation, Aggregation
…
## Arrange

```r
# load tidyverse and gapminder data
library("tidyverse")
library("gapminder")

# With tidyverse verbs, the first argument is the data frame
# Sort by year and then by continent.
arrange(gapminder, year, continent)
```

```
## # A tibble: 1,704 x 6
##    country                  continent  year lifeExp     pop gdpPercap
##    <fct>                    <fct>     <int>   <dbl>   <int>     <dbl>
##  1 Algeria                  Africa     1952    43.1 9279525     2449.
##  2 Angola                   Africa     1952    30.0 4232095     3521.
##  3 Benin                    Africa     1952    38.2 1738315     1063.
##  4 Botswana                 Africa     1952    47.6  442308      851.
##  5 Burkina Faso             Africa     1952    32.0 4469979      543.
##  6 Burundi                  Africa     1952    39.0 2445618      339.
##  7 Cameroon                 Africa     1952    38.5 5009067     1173.
##  8 Central African Republic Africa     1952    35.5 1291695     1071.
##  9 Chad                     Africa     1952    38.1 2682462     1179.
## 10 Comoros                  Africa     1952    40.7  153936     1103.
## # … with 1,694 more rows
```

---

# Select variables

```r
# Which variables do I want to keep?
# Again, first arg is the data frame name
# (notice lack of $)
select(gapminder, country, year, gdpPercap)
```

```
## # A tibble: 1,704 x 3
##    country      year gdpPercap
##    <fct>       <int>     <dbl>
##  1 Afghanistan  1952      779.
##  2 Afghanistan  1957      821.
##  3 Afghanistan  1962      853.
##  4 Afghanistan  1967      836.
##  5 Afghanistan  1972      740.
##  6 Afghanistan  1977      786.
##  7 Afghanistan  1982      978.
##  8 Afghanistan  1987      852.
##  9 Afghanistan  1992      649.
## 10 Afghanistan  1997      635.
## # … with 1,694 more rows
```
…
---

# Create variables with "mutate"

```r
# mutate(dataframe, new_variable = (whatever you want))
mutate(gapminder, 
       gdp = gdpPercap * pop)
```

```
## # A tibble: 1,704 x 7
##    country     continent  year lifeExp      pop gdpPercap          gdp
##    <fct>       <fct>     <int>   <dbl>    <int>     <dbl>        <dbl>
##  1 Afghanistan Asia       1952    28.8  8425333      779.  6567086330.
##  2 Afghanistan Asia       1957    30.3  9240934      821.  7585448670.
##  3 Afghanistan Asia       1962    32.0 10267083      853.  8758855797.
##  4 Afghanistan Asia       1967    34.0 11537966      836.  9648014150.
##  5 Afghanistan Asia       1972    36.1 13079460      740.  9678553274.
##  6 Afghanistan Asia       1977    38.4 14880372      786. 11697659231.
##  7 Afghanistan Asia       1982    39.9 12881816      978. 12598563401.
##  8 Afghanistan Asia       1987    40.8 13867957      852. 11820990309.
##  9 Afghanistan Asia       1992    41.7 16317921      649. 10595901589.
## 10 Afghanistan Asia       1997    41.8 22227415      635. 14121995875.
## # … with 1,694 more rows
```

---

# Count (or tabulate)

```r
# tabulate variable(s) with count().
# Again... result is a DATA FRAME
count(gapminder, continent, year)
```

```
## # A tibble: 60 x 3
##    continent  year     n
##    <fct>     <int> <int>
##  1 Africa     1952    52
##  2 Africa     1957    52
##  3 Africa     1962    52
##  4 Africa     1967    52
##  5 Africa     1972    52
##  6 Africa     1977    52
##  7 Africa     1982    52
##  8 Africa     1987    52
##  9 Africa     1992    52
## 10 Africa     1997    52
## # … with 50 more rows
```
…
---

# Group data by variables

```r
# partition data into groups. Pretty benign when used alone
group_by(gapminder, continent) 
```

```
## # A tibble: 1,704 x 6
## # Groups:   continent [5]
##    country     continent  year lifeExp      pop gdpPercap
##    <fct>       <fct>     <int>   <dbl>    <int>     <dbl>
##  1 Afghanistan Asia       1952    28.8  8425333      779.
##  2 Afghanistan Asia       1957    30.3  9240934      821.
##  3 Afghanistan Asia       1962    32.0 10267083      853.
##  4 Afghanistan Asia       1967    34.0 11537966      836.
##  5 Afghanistan Asia       1972    36.1 13079460      740.
##  6 Afghanistan Asia       1977    38.4 14880372      786.
##  7 Afghanistan Asia       1982    39.9 12881816      978.
##  8 Afghanistan Asia       1987    40.8 13867957      852.
##  9 Afghanistan Asia       1992    41.7 16317921      649.
## 10 Afghanistan Asia       1997    41.8 22227415      635.
## # … with 1,694 more rows
```
…
---

### Why we like averages: noise canceling out

.left-code[
Flip 100 times. After each flip, find proportion of heads *up to that point*

Eventually this "running average" should approach what number?

```
## # A tibble: 100 x 3
##    trial flip  running_mean
##    <int> <chr>        <dbl>
##  1     1 Heads        1    
##  2     2 Tails        0.5  
##  3     3 Heads        0.667
##  4     4 Tails        0.5  
##  5     5 Tails        0.4  
##  6     6 Heads        0.5  
##  7     7 Tails        0.429
##  8     8 Tails        0.375
##  9     9 Tails        0.333
## 10    10 Heads        0.4  
## # … with 90 more rows
```
…
--

.pull-right[
Life expectancy *aggregated* by continent-year

```
## # A tibble: 60 x 3
## # Groups:   continent [5]
##    continent  year lifeExp_mean
##    <fct>     <int>        <dbl>
##  1 Africa     1952         39.1
##  2 Africa     1957         41.3
##  3 Africa     1962         43.3
##  4 Africa     1967         45.3
##  5 Africa     1972         47.5
##  6 Africa     1977         49.6
##  7 Africa     1982         51.6
##  8 Africa     1987         53.3
##  9 Africa     1992         53.6
## 10 Africa     1997         53.6
## # … with 50 more rows
```
…
