Indicators and Interactions
…
```r
# X = f(U) and Y = f(U)
# but Y ≠ f(X)
confound_data <- confound_data %>%
  mutate(
    X = 2 + (3*U) + error_x, 
    Y = 1 + (2*U) + error_y
  ) %>%
  select(-starts_with("error")) %>%
  print()
```

```
## # A tibble: 200 x 3
##          U       X       Y
##      <dbl>   <dbl>   <dbl>
##  1  0.624   5.13    3.51  
##  2  0.998   3.50    3.24  
##  3 -0.910  -0.391  -1.68  
##  4  0.0374  1.74   -1.04  
##  5  0.433   3.99    0.296 
##  6 -1.32   -1.45   -1.27  
##  7 -0.811   0.583  -2.68  
##  8 -0.492   1.40   -0.802 
##  9 -0.353  -0.0152 -0.0595
## 10 -1.55   -1.70   -1.91  
## # … with 190 more rows
```
…
## Elections data

```r
library("tidyverse")
library("here")
library("broom")

# read House elections/ideology data
house <- read_csv(here("data", "house-ideology.csv")) %>%
  print()
```

```
## # A tibble: 450 x 5
##    state_abbrev district_code nominate_dim1 rep_pvote party     
##    <chr>                <dbl>         <dbl>     <dbl> <chr>     
##  1 AL                       3         0.338     0.669 Republican
##  2 AL                       7        -0.39      0.291 Democrat  
##  3 AL                       2         0.367     0.663 Republican
##  4 AL                       5         0.607     0.674 Republican
##  5 AL                       1         0.543     0.651 Republican
##  6 AL                       6         0.773     0.731 Republican
##  7 AL                       4         0.362     0.822 Republican
##  8 AK                       1         0.28      0.584 Republican
##  9 AZ                       8         0.749     0.611 Republican
## 10 AZ                       3        -0.599     0.342 Democrat  
## # … with 440 more rows
```
…
--

```r
# new_variable = case_when(if condition ~ result if TRUE,
#                          if condition2 ~ result if TRUE)
house <- house %>%
  mutate(republican = case_when(party == "Republican" ~ 1,
                                party == "Democrat" ~ 0)) %>%
  print()
```

--

```
## # A tibble: 450 x 6
##    state_abbrev district_code nominate_dim1 rep_pvote party      republican
##    <chr>                <dbl>         <dbl>     <dbl> <chr>           <dbl>
##  1 AL                       3         0.338     0.669 Republican          1
##  2 AL                       7        -0.39      0.291 Democrat            0
##  3 AL                       2         0.367     0.663 Republican          1
##  4 AL                       5         0.607     0.674 Republican          1
##  5 AL                       1         0.543     0.651 Republican          1
##  6 AL                       6         0.773     0.731 Republican          1
##  7 AL                       4         0.362     0.822 Republican          1
##  8 AK                       1         0.28      0.584 Republican          1
##  9 AZ                       8         0.749     0.611 Republican          1
## 10 AZ                       3        -0.599     0.342 Democrat            0
## # … with 440 more rows
```
…
