Unleashing the Power of the Tidyverse
…
**Problem is** these steps are cumbersome to type in code, and this process of understanding your data means pushing a lot of data around, modifying it, filtering it, summarizing, and it's all just tedious

---

```r
library("tidyverse")

# COUNTY-level data from Midwest states
midwest
```

```
## # A tibble: 437 x 28
##      PID county state  area poptotal popdensity popwhite popblack
##    <int> <chr>  <chr> <dbl>    <int>      <dbl>    <int>    <int>
##  1   561 ADAMS  IL    0.052    66090      1271.    63917     1702
##  2   562 ALEXA… IL    0.014    10626       759      7054     3496
##  3   563 BOND   IL    0.022    14991       681.    14477      429
##  4   564 BOONE  IL    0.017    30806      1812.    29344      127
##  5   565 BROWN  IL    0.018     5836       324.     5264      547
##  6   566 BUREAU IL    0.05     35688       714.    35157       50
##  7   567 CALHO… IL    0.017     5322       313.     5298        1
##  8   568 CARRO… IL    0.027    16805       622.    16519      111
##  9   569 CASS   IL    0.024    13437       560.    13384       16
## 10   570 CHAMP… IL    0.058   173025      2983.   146506    16559
## # … with 427 more rows, and 20 more variables: popamerindian <int>,
## #   popasian <int>, popother <int>, percwhite <dbl>, percblack <dbl>,
## #   percamerindan <dbl>, percasian <dbl>, percother <dbl>,
## #   popadults <int>, perchsd <dbl>, percollege <dbl>, percprof <dbl>,
## #   poppovertyknown <int>, percpovertyknown <dbl>, percbelowpoverty <dbl>,
## #   percchildbelowpovert <dbl>, percadultpoverty <dbl>,
## #   percelderlypoverty <dbl>, inmetro <int>, category <chr>
```
…
## Printing the results of a chain

```r
# results don't print when you make new object
just_WI <- midwest %>%
  filter(state == "WI")

# But they do with print()
just_WI <- midwest %>%
  filter(state == "WI") %>%
  print()
```

```
## # A tibble: 72 x 30
## # Groups:   state [1]
##      PID county state  area poptotal popdensity popwhite popblack
##    <int> <chr>  <chr> <dbl>    <int>      <dbl>    <int>    <int>
##  1  2981 ADAMS  WI    0.041    15682       382.    15001      375
##  2  2982 ASHLA… WI    0.054    16307       302.    14749       17
##  3  2983 BARRON WI    0.053    40750       769.    40346       40
##  4  2984 BAYFI… WI    0.089    14008       157.    12707       29
##  5  2985 BROWN  WI    0.032   194594      6081.   186621     1012
##  6  2986 BUFFA… WI    0.04     13584       340.    13521        5
##  7  2987 BURNE… WI    0.053    13084       247.    12497       22
##  8  2988 CALUM… WI    0.023    34291      1491.    33910       29
##  9  2989 CHIPP… WI    0.063    52360       831.    51854       31
## 10  2990 CLARK  WI    0.072    31647       440.    31437       29
## # … with 62 more rows, and 22 more variables: popamerindian <int>,
## #   popasian <int>, popother <int>, percwhite <dbl>, percblack <dbl>,
## #   percamerindan <dbl>, percasian <dbl>, percother <dbl>,
## #   popadults <int>, perchsd <dbl>, percollege <dbl>, percprof <dbl>,
## #   poppovertyknown <int>, percpovertyknown <dbl>, percbelowpoverty <dbl>,
## #   percchildbelowpovert <dbl>, percadultpoverty <dbl>,
## #   percelderlypoverty <dbl>, inmetro <int>, category <chr>,
## #   popchildren <int>, pr_children <dbl>
```
…
