Data Cleaning
…
---

## Shaping data

**Long data:** Each variable gets its own column

--

.pull-left[

```
## # A tibble: 144 x 3
##     year month passengers
##    <int> <chr>      <dbl>
##  1  1949 Jan          112
##  2  1949 Feb          118
##  3  1949 Mar          132
##  4  1949 Apr          129
##  5  1949 May          121
##  6  1949 Jun          135
##  7  1949 Jul          148
##  8  1949 Aug          148
##  9  1949 Sep          136
## 10  1949 Oct          119
## # … with 134 more rows
```
…
.pull-right[

```
## # A tibble: 144 x 3
##     year month passengers
##    <int> <chr>      <dbl>
##  1  1949 Jan          112
##  2  1950 Jan          115
##  3  1951 Jan          145
##  4  1952 Jan          171
##  5  1953 Jan          196
##  6  1954 Jan          204
##  7  1955 Jan          242
##  8  1956 Jan          284
##  9  1957 Jan          315
## 10  1958 Jan          340
## # … with 134 more rows
```
]

---

## Merging

I have two data tables

.pull-left[

```
## # A tibble: 50 x 2
##    state_name  Murder
##    <chr>        <dbl>
##  1 Alabama       13.2
##  2 Alaska        10  
##  3 Arizona        8.1
##  4 Arkansas       8.8
##  5 California     9  
##  6 Colorado       7.9
##  7 Connecticut    3.3
##  8 Delaware       5.9
##  9 Florida       15.4
## 10 Georgia       17.4
## # … with 40 more rows
```
…
---

## Merging

Left join: return the "left" dataset and anything that matches from the right

```r
# arranging to show the effect
left_join(arrests, midwest_poverty, by = "state_name") %>%
  arrange(mean_poverty)
```

```
## # A tibble: 50 x 4
##    state_name Murder state mean_poverty
##    <chr>       <dbl> <chr>        <dbl>
##  1 Wisconsin     2.6 WI            10.7
##  2 Indiana       7.2 IN            10.7
##  3 Illinois     10.4 IL            11.9
##  4 Ohio          7.3 OH            12.5
##  5 Michigan     12.1 MI            13.1
##  6 Alabama      13.2 <NA>          NA  
##  7 Alaska       10   <NA>          NA  
##  8 Arizona       8.1 <NA>          NA  
##  9 Arkansas      8.8 <NA>          NA  
## 10 California    9   <NA>          NA  
## # … with 40 more rows
```
…
```r
# equals 1 if a condition is satisfied
arrests %>%
  mutate(
    placed_ive_lived = case_when(state_name == "Missouri" ~ 1, 
                                 state_name == "California" ~ 1, 
                                 state_name == "Wisconsin" ~ 1, 
                                 TRUE ~ 0)
  ) %>%
  print()
```

```
## # A tibble: 50 x 3
##    state_name  Murder placed_ive_lived
##    <chr>        <dbl>            <dbl>
##  1 Alabama       13.2                0
##  2 Alaska        10                  0
##  3 Arizona        8.1                0
##  4 Arkansas       8.8                0
##  5 California     9                  1
##  6 Colorado       7.9                0
##  7 Connecticut    3.3                0
##  8 Delaware       5.9                0
##  9 Florida       15.4                0
## 10 Georgia       17.4                0
## # … with 40 more rows
```
…
