Multiple Regression
…
## Interpreting Multiple Regression

.pull-left[

```r
library("tidyverse")

# show the car data, convert to 'tibble'
mtcars %>% 
  as_tibble(rownames = "model") %>%
  select(model, mpg, wt, disp)
```

```
## # A tibble: 32 x 4
##    model               mpg    wt  disp
##    <chr>             <dbl> <dbl> <dbl>
##  1 Mazda RX4          21    2.62  160 
##  2 Mazda RX4 Wag      21    2.88  160 
##  3 Datsun 710         22.8  2.32  108 
##  4 Hornet 4 Drive     21.4  3.22  258 
##  5 Hornet Sportabout  18.7  3.44  360 
##  6 Valiant            18.1  3.46  225 
##  7 Duster 360         14.3  3.57  360 
##  8 Merc 240D          24.4  3.19  147.
##  9 Merc 230           22.8  3.15  141.
## 10 Merc 280           19.2  3.44  168.
## # … with 22 more rows
```
…
# predictions using augment()
wt_predictions <- 
  augment(car_model, newdata = vary_wt) %>%
  mutate(MOE = 1.96 * .se.fit,
         lower_bound = .fitted - MOE,
         upper_bound = .fitted + MOE) %>%
  print()
```

```
## # A tibble: 32 x 8
##      mpg    wt  disp .fitted .se.fit   MOE lower_bound upper_bound
##    <dbl> <dbl> <dbl>   <dbl>   <dbl> <dbl>       <dbl>       <dbl>
##  1  21    2.62  231.    22.1   0.866  1.70        20.4        23.8
##  2  21    2.88  231.    21.2   0.652  1.28        20.0        22.5
##  3  22.8  2.32  231.    23.1   1.16   2.28        20.8        25.4
##  4  21.4  3.22  231.    20.1   0.516  1.01        19.1        21.1
##  5  18.7  3.44  231.    19.3   0.577  1.13        18.2        20.5
##  6  18.1  3.46  231.    19.3   0.588  1.15        18.1        20.4
##  7  14.3  3.57  231.    18.9   0.659  1.29        17.6        20.2
##  8  24.4  3.19  231.    20.2   0.517  1.01        19.2        21.2
##  9  22.8  3.15  231.    20.3   0.521  1.02        19.3        21.3
## 10  19.2  3.44  231.    19.3   0.577  1.13        18.2        20.5
## # … with 22 more rows
```
…
