Variation and Randomness
…
**How accurate is the mean?**

What's the dispersion in the raw data? Calculate the *standard deviation* of data `\(x\)`:
`\begin{align}
  s(x) = \sqrt{\dfrac{\sum\limits_{i}^{n}(x_{i} - \bar{x})^{2}}{n - 1}}
\end{align}`

**Standard deviation** is the "average distance between a data point and `\(\bar{x}\)`"
]

.right-plot[
Data `\(x\)` where `\(\bar{x} = 10\)`

```
## # A tibble: 100 x 3
##        x `x - xbar` `(x - xbar)^2`
##    <int>      <dbl>          <dbl>
##  1    15          5             25
##  2     1         -9             81
##  3    10          0              0
##  4    14          4             16
##  5    19          9             81
##  6     6         -4             16
##  7    10          0              0
##  8    20         10            100
##  9    16          6             36
## 10    19          9             81
## # … with 90 more rows
```
…
