Nonlinear Relationships
…
```r
# get predicted values for log(x)
# calculate unlogged x
# create upper & lower conf interval bounds
log_preds <- augment(log_model) %>%
  mutate(gdp_pc = exp(log_gdp),
         MOE = 1.96 * .se.fit,
         conf.low = .fitted - MOE,
         conf.high = .fitted + MOE) %>%
  print()
```

```
## # A tibble: 142 x 13
##    lifeExp log_gdp .fitted .se.fit  .resid    .hat .sigma .cooksd
##      <dbl>   <dbl>   <dbl>   <dbl>   <dbl>   <dbl>  <dbl>   <dbl>
##  1    43.8    6.88    54.5   0.972 -10.7   0.0186    7.09 2.18e-2
##  2    76.4    8.69    67.5   0.599   8.89  0.00706   7.11 5.58e-3
##  3    72.3    8.74    67.9   0.600   4.43  0.00710   7.14 1.39e-3
##  4    42.7    8.48    66.0   0.601 -23.3   0.00712   6.87 3.85e-2
##  5    75.3    9.46    73.1   0.704   2.26  0.00976   7.15 5.03e-4
##  6    81.2   10.4     80.2   1.01    1.04  0.0200    7.15 2.21e-4
##  7    79.8   10.5     80.5   1.02   -0.712 0.0207    7.15 1.08e-4
##  8    75.6   10.3     79.2   0.956  -3.52  0.0180    7.14 2.28e-3
##  9    64.1    7.24    57.1   0.854   6.98  0.0144    7.12 7.10e-3
## 10    79.4   10.4     80.0   0.999  -0.598 0.0197    7.15 7.22e-5
## # … with 132 more rows, and 5 more variables: .std.resid <dbl>,
## #   gdp_pc <dbl>, MOE <dbl>, conf.low <dbl>, conf.high <dbl>
```
…
